<?xml version="1.0" encoding="UTF-8" standalone="no"?>
<!-- Created with Inkscape (http://www.inkscape.org/) -->

<svg
   xmlns:dc="http://purl.org/dc/elements/1.1/"
   xmlns:cc="http://creativecommons.org/ns#"
   xmlns:rdf="http://www.w3.org/1999/02/22-rdf-syntax-ns#"
   xmlns:svg="http://www.w3.org/2000/svg"
   xmlns="http://www.w3.org/2000/svg"
   xmlns:sodipodi="http://sodipodi.sourceforge.net/DTD/sodipodi-0.dtd"
   xmlns:inkscape="http://www.inkscape.org/namespaces/inkscape"
   width="50mm"
   height="50mm"
   viewBox="0 0 50 50"
   version="1.1"
   id="svg903"
   inkscape:version="0.92.5 (2060ec1f9f, 2020-04-08)"
   sodipodi:docname="logo.svg">
  <defs
     id="defs897" />
  <sodipodi:namedview
     id="base"
     pagecolor="#ffffff"
     bordercolor="#666666"
     borderopacity="1.0"
     inkscape:pageopacity="0.0"
     inkscape:pageshadow="2"
     inkscape:zoom="1.4"
     inkscape:cx="-11.597766"
     inkscape:cy="79.083039"
     inkscape:document-units="mm"
     inkscape:current-layer="layer1"
     showgrid="false"
     inkscape:window-width="1280"
     inkscape:window-height="987"
     inkscape:window-x="0"
     inkscape:window-y="0"
     inkscape:window-maximized="1" />
  <metadata
     id="metadata900">
    <rdf:RDF>
      <cc:Work
         rdf:about="">
        <dc:format>image/svg+xml</dc:format>
        <dc:type
           rdf:resource="http://purl.org/dc/dcmitype/StillImage" />
        <dc:title></dc:title>
      </cc:Work>
    </rdf:RDF>
  </metadata>
  <g
     inkscape:label="Layer 1"
     inkscape:groupmode="layer"
     id="layer1"
     transform="translate(0,-247)">
    <path
       inkscape:connector-curvature="0"
       id="path839"
       d="m 8.6682558,293.9774 c -0.9988305,-0.30763 -1.8416024,-1.07701 -2.0908157,-1.90878 -0.2858437,-0.95411 -0.1797677,-1.64897 0.5514395,-3.61567 0.3723201,-1.00123 0.792382,-2.14318 0.9334387,-2.53761 0.1411097,-0.3944 0.4889399,-1.33775 0.7729987,-2.09628 0.2840601,-0.7585 0.5940703,-1.6102 0.6888733,-1.89261 l 0.1724689,-0.51346 -0.3337458,-0.42434 c -1.5099636,-1.9199 -2.867518,-4.90956 -3.4428813,-7.58207 -1.6272402,-7.55858 1.6238529,-15.55989 8.1340519,-20.01879 4.96455,-3.40028 11.043525,-4.32627 16.73558,-2.54924 3.207589,1.00139 6.604515,3.24195 8.862095,5.84526 4.538273,5.2333 5.987009,12.235 3.877919,18.74193 -0.575824,1.77653 -1.875932,4.27541 -2.891551,5.55772 l -0.340179,0.42953 0.171658,0.51346 c 0.177334,0.52986 1.655427,4.55173 2.553695,6.94786 0.549169,1.46498 0.651596,2.33353 0.381458,3.23518 -0.176522,0.58937 -0.780676,1.25967 -1.456547,1.61619 l -0.566848,0.29897 -16.218634,0.019 c -8.920243,0.0112 -16.3427399,-0.019 -16.4944477,-0.0662 z M 41.27153,291.82754 c 0.146518,-0.14651 0.298252,-0.39351 0.33726,-0.54894 0.0746,-0.29726 0.04812,-0.38619 -0.776757,-2.60499 -0.845636,-2.27466 -1.273158,-3.43626 -1.543053,-4.19257 -0.140839,-0.39443 -0.311659,-0.85873 -0.379728,-1.03176 l -0.123816,-0.31464 -0.690928,0.64563 c -4.491074,4.19644 -10.857081,5.99761 -16.884448,4.77717 -3.451614,-0.69888 -6.765198,-2.39911 -9.310217,-4.77717 l -0.690955,-0.64563 -0.123803,0.31464 c -0.06812,0.173 -0.23897,0.63733 -0.379701,1.03176 -0.270057,0.75631 -0.697443,1.91791 -1.5430803,4.19257 -0.8248471,2.2188 -0.8513661,2.3077 -0.7767568,2.60499 0.038934,0.15543 0.1908511,0.40245 0.3372599,0.54894 l 0.2662721,0.26628 H 24.997074 41.005069 Z M 26.410856,286.9063 c 5.472766,-0.48443 10.017311,-3.10427 13.100981,-7.55245 1.613906,-2.32804 2.660882,-5.34084 2.922503,-8.40997 0.280573,-3.29128 -0.331771,-6.55973 -1.765504,-9.42367 -2.967593,-5.92789 -8.948817,-9.58676 -15.671626,-9.58676 -6.293722,0 -11.949552,3.2015 -15.1107009,8.55347 -3.3456171,5.6642 -3.158552,13.2768 0.4583389,18.65362 2.594002,3.85622 6.250119,6.37328 10.710456,7.37365 2.046104,0.45891 3.444314,0.56128 5.355552,0.39211 z m -3.62027,-2.87609 c -1.778697,-0.17408 -3.627056,-0.85789 -5.295864,-1.959 -1.002291,-0.6613 -2.731571,-2.41756 -3.494379,-3.54891 -1.469767,-2.17975 -2.562563,-5.26372 -2.143015,-6.04767 0.184903,-0.34539 0.616831,-0.53226 1.728846,-0.74785 1.054843,-0.20464 3.339996,-0.26979 4.318742,-0.12355 l 0.575687,0.0859 0.277761,-0.54807 c 0.390676,-0.77099 1.247829,-1.58422 2.12404,-2.01523 0.702471,-0.34555 0.814385,-0.36704 1.906479,-0.3664 1.058302,8.4e-4 1.218255,0.029 1.821327,0.32408 0.637782,0.31195 1.81035,1.35553 2.167182,1.92875 l 0.166521,0.26763 1.536673,-0.54339 c 1.474552,-0.52143 1.583467,-0.54323 2.695131,-0.53888 0.902269,0.003 1.320114,0.0596 1.889449,0.25277 1.972089,0.66944 3.516546,2.17466 4.07004,3.96661 0.268976,0.87051 0.291601,2.34684 0.05029,3.2729 -0.399975,1.53562 -1.532996,3.0781 -2.819103,3.83796 -1.155971,0.68295 -5.091308,1.89645 -7.383382,2.2767 -1.612282,0.26761 -3.001464,0.34223 -4.192551,0.22572 z m 3.308394,-2.03672 c 1.948299,-0.31596 6.014231,-1.50621 7.210264,-2.11074 2.159965,-1.09169 2.798098,-3.81242 1.401158,-5.97374 -0.787192,-1.21796 -1.82949,-1.78501 -3.281011,-1.78501 -0.719177,0 -1.073467,0.0772 -2.343327,0.51148 -0.822847,0.28135 -1.558136,0.56049 -1.633991,0.62034 -0.07596,0.06 -0.137859,0.24384 -0.137859,0.40906 0,0.46954 -0.410005,1.54673 -0.829443,2.17927 -0.67471,1.01748 -2.087897,1.91884 -2.748466,1.75304 -0.429334,-0.1078 -0.724991,-0.49502 -0.724991,-0.94962 0,-0.48208 0.260055,-0.79125 0.909353,-1.08156 0.950171,-0.42474 1.451628,-1.17259 1.45717,-2.17321 0.0054,-0.91587 -0.2836,-1.60605 -0.897945,-2.14677 -0.569525,-0.50132 -0.933601,-0.59899 -2.006852,-0.53836 -0.604342,0.034 -0.846555,0.10459 -1.197872,0.348 -0.46034,0.319 -1.022133,1.20437 -1.022133,1.61087 0,0.45099 -0.295278,0.96055 -0.639215,1.10298 -0.28114,0.11658 -0.475071,0.10654 -1.199602,-0.0622 -0.920598,-0.21438 -3.257302,-0.28163 -4.036303,-0.11658 -0.510513,0.10835 -0.516297,0.20247 -0.08163,1.33116 0.768106,1.99472 2.246173,3.96961 3.903762,5.21596 1.201279,0.90324 3.055611,1.71019 4.480369,1.94968 0.662273,0.11142 2.45619,0.0619 3.418715,-0.0944 z m -7.55612,-3.76697 c -0.403381,-0.10975 -0.785813,-0.45759 -0.982205,-0.89312 -0.264921,-0.58755 -0.10191,-1.19643 0.449958,-1.68105 0.363104,-0.31882 0.455556,-0.34829 0.944496,-0.30131 0.61202,0.0587 1.035378,0.32645 1.340442,0.84743 0.181388,0.30976 0.19112,0.41203 0.07543,0.79794 -0.267894,0.89413 -1.072846,1.4358 -1.828139,1.23011 z m -15.6938502,1.39917 c -0.3731513,-0.15354 -0.6399156,-0.67667 -1.1812143,-2.31616 -1.45463733,-4.40572 -1.67316628,-8.8878 -0.6554614,-13.44361 0.2744327,-1.22845 1.0047251,-3.50495 1.3199381,-4.11451 0.2930044,-0.56661 1.0026626,-0.71575 1.5093208,-0.31723 0.4640365,0.36502 0.4488896,0.61718 -0.1379149,2.29605 -1.8744412,5.36258 -1.8598758,10.39331 0.04507,15.56644 0.3118035,0.84676 0.4791974,1.46161 0.4402102,1.61693 -0.1362136,0.54273 -0.8411802,0.91739 -1.3399205,0.71206 z m 43.4743872,-0.0657 c -0.648351,-0.32451 -0.660408,-0.67704 -0.07705,-2.25447 0.974582,-2.63534 1.400212,-5.05487 1.396698,-7.93977 -0.0026,-2.82745 -0.368969,-4.85272 -1.407052,-7.79617 -0.312524,-0.88627 -0.46834,-1.49067 -0.426818,-1.65603 0.139758,-0.55649 0.941872,-0.87318 1.480958,-0.58466 0.284006,0.15193 0.450797,0.49659 0.972013,2.0082 1.136293,3.29537 1.601876,7.37085 1.22596,10.73176 -0.309686,2.76896 -1.4865,6.89758 -2.114658,7.41891 -0.269246,0.22356 -0.690118,0.25248 -1.05003,0.0722 z"
       style="fill:#000000;fill-opacity:1;stroke-width:0.1103308" />
  </g>
</svg>
