%!PS-Adobe-3.0 EPSF-3.0
%%Creator: cairo 1.16.0 (https://cairographics.org)
%%CreationDate: Sat Dec 26 23:53:02 2020
%%Pages: 1
%%DocumentData: Clean7Bit
%%LanguageLevel: 2
%%BoundingBox: 1 8 141 134
%%EndComments
%%BeginProlog
50 dict begin
/q { gsave } bind def
/Q { grestore } bind def
/cm { 6 array astore concat } bind def
/w { setlinewidth } bind def
/J { setlinecap } bind def
/j { setlinejoin } bind def
/M { setmiterlimit } bind def
/d { setdash } bind def
/m { moveto } bind def
/l { lineto } bind def
/c { curveto } bind def
/h { closepath } bind def
/re { exch dup neg 3 1 roll 5 3 roll moveto 0 rlineto
      0 exch rlineto 0 rlineto closepath } bind def
/S { stroke } bind def
/f { fill } bind def
/f* { eofill } bind def
/n { newpath } bind def
/W { clip } bind def
/W* { eoclip } bind def
/BT { } bind def
/ET { } bind def
/BDC { mark 3 1 roll /BDC pdfmark } bind def
/EMC { mark /EMC pdfmark } bind def
/cairo_store_point { /cairo_point_y exch def /cairo_point_x exch def } def
/Tj { show currentpoint cairo_store_point } bind def
/TJ {
  {
    dup
    type /stringtype eq
    { show } { -0.001 mul 0 cairo_font_matrix dtransform rmoveto } ifelse
  } forall
  currentpoint cairo_store_point
} bind def
/cairo_selectfont { cairo_font_matrix aload pop pop pop 0 0 6 array astore
    cairo_font exch selectfont cairo_point_x cairo_point_y moveto } bind def
/Tf { pop /cairo_font exch def /cairo_font_matrix where
      { pop cairo_selectfont } if } bind def
/Td { matrix translate cairo_font_matrix matrix concatmatrix dup
      /cairo_font_matrix exch def dup 4 get exch 5 get cairo_store_point
      /cairo_font where { pop cairo_selectfont } if } bind def
/Tm { 2 copy 8 2 roll 6 array astore /cairo_font_matrix exch def
      cairo_store_point /cairo_font where { pop cairo_selectfont } if } bind def
/g { setgray } bind def
/rg { setrgbcolor } bind def
/d1 { setcachedevice } bind def
/cairo_data_source {
  CairoDataIndex CairoData length lt
    { CairoData CairoDataIndex get /CairoDataIndex CairoDataIndex 1 add def }
    { () } ifelse
} def
/cairo_flush_ascii85_file { cairo_ascii85_file status { cairo_ascii85_file flushfile } if } def
/cairo_image { image cairo_flush_ascii85_file } def
/cairo_imagemask { imagemask cairo_flush_ascii85_file } def
%%EndProlog
%%BeginSetup
%%EndSetup
%%Page: 1 1
%%BeginPageSetup
%%PageBoundingBox: 1 8 141 134
%%EndPageSetup
q 1 8 140 126 rectclip
1 0 0 -1 0 142 cm q
0 g
24.57 133.164 m 21.738 132.293 19.352 130.113 18.645 127.754 c 17.836 125.051
 18.137 123.078 20.207 117.504 c 21.262 114.668 22.453 111.43 22.855 110.312
 c 23.254 109.191 24.238 106.52 25.047 104.367 c 25.852 102.219 26.73 99.805
 26.996 99.004 c 27.488 97.547 l 26.539 96.348 l 22.262 90.902 18.414 82.43
 16.781 74.852 c 12.168 53.426 21.383 30.746 39.84 18.105 c 53.91 8.469 
71.145 5.844 87.277 10.883 c 96.371 13.719 106 20.07 112.398 27.449 c 125.262
 42.285 129.371 62.133 123.391 80.578 c 121.758 85.613 118.074 92.695 115.195
 96.332 c 114.23 97.547 l 114.719 99.004 l 115.219 100.508 119.41 111.906
 121.957 118.699 c 123.512 122.852 123.805 125.312 123.039 127.871 c 122.535
 129.539 120.824 131.441 118.91 132.449 c 117.301 133.297 l 71.328 133.352
 l 46.043 133.383 25 133.297 24.57 133.164 c h
116.988 127.07 m 117.406 126.656 117.836 125.953 117.945 125.516 c 118.156
 124.672 118.082 124.418 115.746 118.129 c 113.348 111.684 112.137 108.391
 111.371 106.246 c 110.973 105.129 110.488 103.812 110.293 103.32 c 109.941
 102.43 l 107.984 104.258 l 95.254 116.156 77.207 121.262 60.121 117.801
 c 50.34 115.82 40.945 111 33.73 104.258 c 31.773 102.43 l 31.422 103.32
 l 31.23 103.812 30.746 105.129 30.348 106.246 c 29.582 108.391 28.367 111.684
 25.973 118.129 c 23.633 124.418 23.559 124.672 23.77 125.516 c 23.879 125.953
 24.312 126.656 24.727 127.07 c 25.48 127.824 l 116.234 127.824 l h
74.867 113.121 m 90.379 111.746 103.262 104.32 112.004 91.711 c 116.578
 85.113 119.543 76.574 120.285 67.871 c 121.082 58.543 119.348 49.277 115.281
 41.16 c 106.871 24.355 89.914 13.984 70.859 13.984 c 53.02 13.984 36.984
 23.059 28.023 38.23 c 18.543 54.285 19.07 75.867 29.324 91.105 c 36.676
 102.039 47.039 109.172 59.684 112.008 c 65.484 113.309 69.449 113.602 74.867
 113.121 c h
64.602 104.969 m 59.562 104.473 54.32 102.535 49.59 99.414 c 46.75 97.539
 41.848 92.562 39.688 89.355 c 35.52 83.176 32.422 74.434 33.609 72.211 
c 34.137 71.234 35.359 70.703 38.512 70.09 c 41.504 69.512 47.98 69.328 
50.754 69.742 c 52.387 69.984 l 53.172 68.43 l 54.281 66.246 56.711 63.941
 59.195 62.719 c 61.184 61.738 61.504 61.68 64.598 61.68 c 67.598 61.684
 68.051 61.762 69.762 62.598 c 71.57 63.484 74.895 66.441 75.906 68.066 
c 76.375 68.824 l 80.73 67.285 l 84.914 65.805 85.223 65.746 88.371 65.758
 c 90.93 65.766 92.113 65.926 93.727 66.473 c 99.316 68.371 103.695 72.637
 105.266 77.719 c 106.027 80.184 106.09 84.371 105.406 86.996 c 104.273 
91.348 101.062 95.719 97.418 97.875 c 94.141 99.809 82.984 103.25 76.488
 104.328 c 71.918 105.086 67.98 105.297 64.602 104.969 c h
73.98 99.195 m 79.504 98.297 91.031 94.926 94.418 93.211 c 100.543 90.117
 102.352 82.402 98.391 76.277 c 96.16 72.824 93.207 71.219 89.09 71.219 
c 87.051 71.219 86.047 71.438 82.449 72.668 c 80.117 73.465 78.031 74.258
 77.816 74.426 c 77.602 74.598 77.426 75.117 77.426 75.586 c 77.426 76.918
 76.266 79.969 75.074 81.762 c 73.164 84.648 69.156 87.203 67.285 86.73 
c 66.066 86.426 65.23 85.328 65.23 84.039 c 65.23 82.676 65.965 81.797 67.805
 80.973 c 70.5 79.77 71.922 77.652 71.938 74.812 c 71.953 72.219 71.133 
70.262 69.391 68.73 c 67.777 67.309 66.746 67.031 63.703 67.203 c 61.988
 67.301 61.305 67.5 60.309 68.188 c 59.004 69.094 57.41 71.602 57.41 72.754
 c 57.41 74.035 56.574 75.477 55.598 75.883 c 54.801 76.211 54.25 76.184
 52.199 75.707 c 49.59 75.098 42.965 74.906 40.758 75.375 c 39.309 75.684
 39.293 75.949 40.523 79.148 c 42.703 84.805 46.891 90.402 51.59 93.934 
c 54.996 96.496 60.254 98.781 64.289 99.461 c 66.168 99.777 71.254 99.637
 73.98 99.191 c h
52.562 88.516 m 51.418 88.203 50.336 87.219 49.777 85.984 c 49.027 84.32
 49.488 82.594 51.055 81.219 c 52.082 80.316 52.344 80.23 53.73 80.363 c
 55.465 80.531 56.664 81.289 57.531 82.766 c 58.043 83.645 58.074 83.934
 57.746 85.027 c 56.984 87.562 54.703 89.098 52.562 88.516 c h
8.074 92.48 m 7.02 92.047 6.262 90.562 4.727 85.918 c 0.605 73.43 -0.016
 60.723 2.871 47.809 c 3.648 44.328 5.719 37.875 6.609 36.145 c 7.441 34.539
 9.453 34.117 10.891 35.246 c 12.203 36.281 12.16 36.996 10.5 41.754 c 5.184
 56.957 5.227 71.215 10.625 85.879 c 11.512 88.281 11.984 90.023 11.875 
90.465 c 11.488 92.004 9.488 93.062 8.074 92.48 c h
131.309 92.297 m 129.473 91.375 129.438 90.375 131.094 85.906 c 133.855
 78.434 135.062 71.578 135.051 63.398 c 135.043 55.383 134.004 49.645 131.062
 41.301 c 130.176 38.789 129.734 37.074 129.852 36.605 c 130.25 35.027 132.523
 34.129 134.051 34.949 c 134.855 35.379 135.328 36.355 136.805 40.641 c 
140.027 49.98 141.348 61.535 140.281 71.062 c 139.402 78.91 136.066 90.613
 134.285 92.09 c 133.523 92.727 132.332 92.809 131.309 92.297 c h
131.309 92.297 m f
Q Q
showpage
%%Trailer
end
%%EOF
