%!PS-Adobe-3.0 EPSF-3.0
%%Creator: cairo 1.16.0 (https://cairographics.org)
%%CreationDate: Sun Dec 27 15:00:39 2020
%%Pages: 1
%%DocumentData: Clean7Bit
%%LanguageLevel: 2
%%BoundingBox: 3 26 275 134
%%EndComments
%%BeginProlog
50 dict begin
/q { gsave } bind def
/Q { grestore } bind def
/cm { 6 array astore concat } bind def
/w { setlinewidth } bind def
/J { setlinecap } bind def
/j { setlinejoin } bind def
/M { setmiterlimit } bind def
/d { setdash } bind def
/m { moveto } bind def
/l { lineto } bind def
/c { curveto } bind def
/h { closepath } bind def
/re { exch dup neg 3 1 roll 5 3 roll moveto 0 rlineto
      0 exch rlineto 0 rlineto closepath } bind def
/S { stroke } bind def
/f { fill } bind def
/f* { eofill } bind def
/n { newpath } bind def
/W { clip } bind def
/W* { eoclip } bind def
/BT { } bind def
/ET { } bind def
/BDC { mark 3 1 roll /BDC pdfmark } bind def
/EMC { mark /EMC pdfmark } bind def
/cairo_store_point { /cairo_point_y exch def /cairo_point_x exch def } def
/Tj { show currentpoint cairo_store_point } bind def
/TJ {
  {
    dup
    type /stringtype eq
    { show } { -0.001 mul 0 cairo_font_matrix dtransform rmoveto } ifelse
  } forall
  currentpoint cairo_store_point
} bind def
/cairo_selectfont { cairo_font_matrix aload pop pop pop 0 0 6 array astore
    cairo_font exch selectfont cairo_point_x cairo_point_y moveto } bind def
/Tf { pop /cairo_font exch def /cairo_font_matrix where
      { pop cairo_selectfont } if } bind def
/Td { matrix translate cairo_font_matrix matrix concatmatrix dup
      /cairo_font_matrix exch def dup 4 get exch 5 get cairo_store_point
      /cairo_font where { pop cairo_selectfont } if } bind def
/Tm { 2 copy 8 2 roll 6 array astore /cairo_font_matrix exch def
      cairo_store_point /cairo_font where { pop cairo_selectfont } if } bind def
/g { setgray } bind def
/rg { setrgbcolor } bind def
/d1 { setcachedevice } bind def
/cairo_data_source {
  CairoDataIndex CairoData length lt
    { CairoData CairoDataIndex get /CairoDataIndex CairoDataIndex 1 add def }
    { () } ifelse
} def
/cairo_flush_ascii85_file { cairo_ascii85_file status { cairo_ascii85_file flushfile } if } def
/cairo_image { image cairo_flush_ascii85_file } def
/cairo_imagemask { imagemask cairo_flush_ascii85_file } def
%%EndProlog
%%BeginSetup
%%EndSetup
%%Page: 1 1
%%BeginPageSetup
%%PageBoundingBox: 3 26 275 134
%%EndPageSetup
q 3 26 272 108 rectclip
1 0 0 -1 0 171 cm q
1 g
38.109 133.41 m 56.199 143.855 l 125.352 103.93 l 125.352 65.742 l 81.254
 40.281 l 12.102 80.207 l 12.102 116.062 l 4.133 120.664 l 4.133 125.367
 l 28.086 139.195 l 38.109 133.41 l f*
125.352 65.742 m 81.254 40.281 l 12.102 80.207 l 56.199 105.664 l 125.352
 65.742 l f*
56.199 143.855 m 125.352 103.93 l 125.352 65.742 l 56.199 105.664 l 56.199
 143.855 l f*
42.918 122.055 m 46.125 124.078 l 46.125 128.781 l 38.109 133.41 l 56.199
 143.855 l 56.199 105.664 l 12.102 80.207 l 12.102 116.062 l 22.172 110.25
 l 25.281 111.926 l 28.387 113.723 l 30.492 114.938 l 32.996 116.383 l 35.203
 117.656 l 37.707 119.102 l 39.812 120.316 l 42.918 122.055 l f*
20.672 126.102 m 35.203 117.656 l 23.074 127.664 l 20.672 126.102 l 37.707
 119.219 l 23.074 127.664 l 37.707 119.219 l 39.711 120.375 l 23.879 129.574
 l 26.883 131.484 l 42.918 122.227 l 46.125 124.078 l 28.086 134.492 l 4.133
 120.664 l 12.102 116.062 l 22.172 110.25 l 25.18 111.984 l 9.344 121.242
 l 12.352 123.094 l 28.387 113.836 l 30.391 114.992 l 15.961 123.383 l 18.363
 124.945 l 32.996 116.5 l 35.203 117.656 l f*
28.086 134.492 m 28.086 139.195 l 4.133 125.367 l 4.133 120.664 l 28.086
 134.492 l f*
46.125 124.078 m 46.125 128.781 l 38.109 133.41 l 28.086 139.195 l 28.086
 134.492 l 46.125 124.078 l f*
25.23 111.957 m 28.387 113.605 l 12.352 122.863 l 9.344 121.129 l 25.23
 111.957 l f*
23.879 129.574 m 39.812 120.316 l 42.918 121.996 l 26.883 131.254 l 23.879
 129.574 l f*
20.672 126.102 m 35.203 117.656 l 37.707 118.984 l 23.074 127.434 l 20.672
 126.102 l f*
15.961 123.383 m 30.492 114.938 l 32.996 116.266 l 18.363 124.715 l 15.961
 123.383 l f*
42.918 122.227 m 42.918 121.996 l 26.883 131.367 l 42.918 122.227 l f*
28.387 113.836 m 28.387 113.605 l 12.352 122.98 l 28.387 113.836 l f*
37.707 119.219 m 37.707 118.984 l 23.074 127.551 l 37.707 119.219 l f*
32.996 116.5 m 32.996 116.266 l 18.363 124.832 l 32.996 116.5 l f*
12.352 123.094 m 12.352 122.863 l 9.344 121.242 l 12.352 123.094 l f*
26.883 131.484 m 26.883 131.254 l 23.879 129.633 l 26.883 131.484 l f*
23.074 127.664 m 23.074 127.434 l 20.672 126.16 l 23.074 127.664 l f*
18.363 124.945 m 18.363 124.715 l 15.961 123.441 l 18.363 124.945 l f*
0 g
0.75 w
1 J
2 j
[] 0.0 d
4 M q 1 0 0 1 0 0 cm
12.102 116.062 m 12.102 80.207 l S Q
q 1 0 0 1 0 0 cm
81.254 40.281 m 12.102 80.207 l S Q
q 1 0 0 1 0 0 cm
125.352 103.93 m 125.352 65.742 l S Q
q 1 0 0 1 0 0 cm
125.352 65.742 m 81.254 40.281 l S Q
q 1 0 0 1 0 0 cm
38.109 133.41 m 56.199 143.855 l S Q
q 1 0 0 1 0 0 cm
12.102 80.207 m 56.199 105.664 l S Q
q 1 0 0 1 0 0 cm
56.199 143.855 m 56.199 105.664 l S Q
q 1 0 0 1 0 0 cm
22.172 110.25 m 25.18 111.984 l S Q
q 1 0 0 1 0 0 cm
25.379 111.871 m 28.387 113.605 l S Q
q 1 0 0 1 0 0 cm
28.387 113.836 m 28.387 113.605 l S Q
q 1 0 0 1 0 0 cm
28.387 113.836 m 30.391 114.992 l S Q
q 1 0 0 1 0 0 cm
30.594 114.879 m 32.996 116.266 l S Q
q 1 0 0 1 0 0 cm
32.996 116.5 m 32.996 116.266 l S Q
q 1 0 0 1 0 0 cm
32.996 116.5 m 35.102 117.715 l S Q
q 1 0 0 1 0 0 cm
35.301 117.598 m 37.707 118.984 l S Q
q 1 0 0 1 0 0 cm
37.707 119.219 m 37.707 118.984 l S Q
q 1 0 0 1 0 0 cm
37.707 119.219 m 39.711 120.375 l S Q
q 1 0 0 1 0 0 cm
39.914 120.258 m 42.918 121.996 l S Q
q 1 0 0 1 0 0 cm
42.918 122.227 m 42.918 121.996 l S Q
q 1 0 0 1 0 0 cm
42.918 122.227 m 46.125 124.078 l S Q
q 1 0 0 1 0 0 cm
46.125 124.078 m 46.125 128.781 l S Q
q 1 0 0 1 0 0 cm
56.199 143.855 m 125.352 103.93 l S Q
q 1 0 0 1 0 0 cm
56.199 105.664 m 125.352 65.742 l S Q
q 1 0 0 1 0 0 cm
22.172 110.25 m 4.133 120.664 l S Q
q 1 0 0 1 0 0 cm
4.133 125.367 m 4.133 120.664 l S Q
q 1 0 0 1 0 0 cm
12.352 123.094 m 9.344 121.359 l S Q
q 1 0 0 1 0 0 cm
28.387 113.836 m 12.352 123.094 l S Q
q 1 0 0 1 0 0 cm
18.363 124.945 m 15.961 123.559 l S Q
q 1 0 0 1 0 0 cm
32.996 116.5 m 18.363 124.945 l S Q
q 1 0 0 1 0 0 cm
23.074 127.664 m 20.672 126.277 l S Q
q 1 0 0 1 0 0 cm
37.707 119.219 m 23.074 127.664 l S Q
q 1 0 0 1 0 0 cm
26.883 131.484 m 23.879 129.75 l S Q
q 1 0 0 1 0 0 cm
42.918 122.227 m 26.883 131.484 l S Q
q 1 0 0 1 0 0 cm
46.125 124.078 m 28.086 134.492 l S Q
q 1 0 0 1 0 0 cm
4.133 120.664 m 28.086 134.492 l S Q
q 1 0 0 1 0 0 cm
9.344 121.359 m 9.344 121.129 l S Q
q 1 0 0 1 0 0 cm
9.344 121.129 m 25.379 111.871 l S Q
q 1 0 0 1 0 0 cm
28.387 113.605 m 12.352 122.863 l S Q
q 1 0 0 1 0 0 cm
12.352 122.863 m 9.344 121.129 l S Q
q 1 0 0 1 0 0 cm
12.352 123.094 m 12.352 122.863 l S Q
q 1 0 0 1 0 0 cm
15.961 123.559 m 15.961 123.324 l S Q
q 1 0 0 1 0 0 cm
15.961 123.324 m 30.594 114.879 l S Q
q 1 0 0 1 0 0 cm
32.996 116.266 m 18.363 124.715 l S Q
q 1 0 0 1 0 0 cm
18.363 124.715 m 15.961 123.324 l S Q
q 1 0 0 1 0 0 cm
18.363 124.945 m 18.363 124.715 l S Q
q 1 0 0 1 0 0 cm
20.672 126.277 m 20.672 126.047 l S Q
q 1 0 0 1 0 0 cm
20.672 126.047 m 35.301 117.598 l S Q
q 1 0 0 1 0 0 cm
37.707 118.984 m 23.074 127.434 l S Q
q 1 0 0 1 0 0 cm
23.074 127.434 m 20.672 126.047 l S Q
q 1 0 0 1 0 0 cm
23.074 127.664 m 23.074 127.434 l S Q
q 1 0 0 1 0 0 cm
23.879 129.75 m 23.879 129.516 l S Q
q 1 0 0 1 0 0 cm
23.879 129.516 m 39.914 120.258 l S Q
q 1 0 0 1 0 0 cm
42.918 121.996 m 26.883 131.254 l S Q
q 1 0 0 1 0 0 cm
26.883 131.254 m 23.879 129.516 l S Q
q 1 0 0 1 0 0 cm
26.883 131.484 m 26.883 131.254 l S Q
q 1 0 0 1 0 0 cm
46.125 128.781 m 28.086 139.195 l S Q
q 1 0 0 1 0 0 cm
28.086 134.492 m 28.086 139.195 l S Q
q 1 0 0 1 0 0 cm
28.086 139.195 m 4.133 125.367 l S Q
1 g
152.32 116.504 m 196.418 141.961 l 265.57 102.039 l 265.57 81.148 l 273.535
 76.551 l 273.535 71.848 l 265.57 67.246 l 265.57 63.848 l 221.473 38.391
 l 152.32 78.316 l 152.32 116.504 l f*
265.57 63.848 m 221.473 38.391 l 152.32 78.316 l 196.418 103.773 l 265.57
 63.848 l f*
196.418 141.961 m 265.57 102.039 l 265.57 63.848 l 196.418 103.773 l 196.418
 141.961 l f*
152.32 116.504 m 196.418 141.961 l 196.418 103.773 l 152.32 78.316 l 152.32
 116.504 l f*
176.617 125.605 m 177.742 124.953 178.379 123.551 178.379 121.711 c 178.379
 118.902 176.914 115.523 174.664 113.152 c 172.418 110.781 169.832 109.883
 168.113 110.875 c 165.766 112.23 165.766 116.629 168.113 120.695 c 170.461
 124.762 174.27 126.961 176.617 125.605 c 177.742 124.953 178.379 123.551
 178.379 121.711 c 178.379 118.902 176.914 115.523 174.664 113.152 c 172.418
 110.781 169.832 109.883 168.113 110.875 c 165.766 112.23 165.766 116.629
 168.113 120.695 c 170.461 124.762 174.27 126.961 176.617 125.605 c 184.633
 120.977 l 185.762 120.324 186.395 118.922 186.395 117.082 c 186.395 114.273
 184.93 110.895 182.684 108.523 c 180.438 106.152 177.848 105.254 176.129
 106.246 c 168.113 110.875 l 176.129 106.246 l 177.848 105.254 180.438 106.152
 182.684 108.523 c 184.93 110.895 186.395 114.273 186.395 117.082 c 186.395
 118.922 185.762 120.324 184.633 120.977 c 176.617 125.605 l f*
265.57 81.148 m 273.535 76.551 l 273.535 71.848 l 265.57 76.445 l 265.57
 81.148 l f*
268.324 71.152 m 268.324 70.922 l 265.57 69.328 l 265.57 67.246 l 273.535
 71.848 l 265.57 76.445 l 265.57 72.742 l 268.324 71.152 l f*
168.121 108.578 m 168.84 108.164 169.055 107.043 168.664 105.738 c 168.277
 104.434 167.363 103.203 166.352 102.617 c 165.688 102.234 165.051 102.168
 164.578 102.441 c 162.883 103.418 162.305 105.586 163.281 107.281 c 164.262
 108.977 166.426 109.559 168.121 108.578 c f*
265.57 72.57 m 265.57 69.328 l 268.324 70.922 l 265.57 72.57 l f*
268.324 71.152 m 268.324 70.922 l 265.57 72.629 l 268.324 71.152 l f*
0 g
q 1 0 0 1 0 0 cm
196.418 141.961 m 196.418 103.773 l S Q
q 1 0 0 1 0 0 cm
265.57 102.039 m 265.57 63.848 l S Q
q 1 0 0 1 0 0 cm
196.418 141.961 m 265.57 102.039 l S Q
q 1 0 0 1 0 0 cm
196.418 103.773 m 265.57 63.848 l S Q
q 1 0 0 1 0 0 cm
152.32 116.504 m 152.32 78.316 l S Q
q 1 0 0 1 0 0 cm
152.32 116.504 m 196.418 141.961 l S Q
q 1 0 0 1 0 0 cm
152.32 78.316 m 196.418 103.773 l S Q
q 1 0 0 1 0 0 cm
186.395 117.082 m 186.395 114.273 184.93 110.895 182.684 108.523 c 180.438
 106.152 177.848 105.254 176.129 106.246 c S Q
q 1 0 0 1 0 0 cm
184.633 120.977 m 185.762 120.324 186.395 118.922 186.395 117.082 c S Q
q 1 0 0 1 0 0 cm
164.578 102.441 m 165.051 102.168 165.688 102.234 166.352 102.617 c S Q
q 1 0 0 1 0 0 cm
168.121 108.578 m 168.84 108.164 169.055 107.043 168.664 105.738 c 168.277
 104.434 167.363 103.203 166.352 102.617 c S Q
q 1 0 0 1 0 0 cm
265.57 63.848 m 221.473 38.391 l S Q
q 1 0 0 1 0 0 cm
221.473 38.391 m 152.32 78.316 l S Q
q 1 0 0 1 0 0 cm
178.379 121.711 m 178.379 118.902 176.914 115.523 174.664 113.152 c 172.418
 110.781 169.832 109.883 168.113 110.875 c S Q
q 1 0 0 1 0 0 cm
168.113 110.875 m 165.766 112.23 165.766 116.629 168.113 120.695 c 170.461
 124.762 174.27 126.961 176.617 125.605 c S Q
q 1 0 0 1 0 0 cm
176.617 125.605 m 177.742 124.953 178.379 123.551 178.379 121.711 c S Q
q 1 0 0 1 0 0 cm
265.57 81.148 m 273.535 76.551 l S Q
q 1 0 0 1 0 0 cm
265.57 76.445 m 273.535 71.848 l S Q
q 1 0 0 1 0 0 cm
273.535 76.551 m 273.535 71.848 l S Q
q 1 0 0 1 0 0 cm
268.324 71.152 m 265.57 72.742 l S Q
q 1 0 0 1 0 0 cm
273.535 71.848 m 265.57 67.246 l S Q
q 1 0 0 1 0 0 cm
268.324 71.152 m 268.324 70.922 l S Q
q 1 0 0 1 0 0 cm
268.324 70.922 m 265.57 72.512 l S Q
q 1 0 0 1 0 0 cm
265.57 69.328 m 268.324 70.922 l S Q
q 1 0 0 1 0 0 cm
168.113 110.875 m 176.129 106.246 l S Q
q 1 0 0 1 0 0 cm
176.617 125.605 m 184.633 120.977 l S Q
q 1 0 0 1 0 0 cm
168.121 108.578 m 166.426 109.559 164.262 108.977 163.281 107.281 c 162.305
 105.586 162.883 103.418 164.578 102.441 c S Q
89.238 77.152 m 89.801 77.754 89.902 78.457 89.488 78.895 c 89.012 79.398
 88.418 79.613 86.398 80.012 c 85.367 80.215 84.199 80.449 83.797 80.531
 c 83.398 80.613 82.43 80.805 81.648 80.957 c 80.867 81.109 79.996 81.285
 79.715 81.348 c 79.203 81.461 l 79.152 81.785 l 78.934 83.25 77.809 85.055
 76.301 86.355 c 72.031 90.039 63.594 91.523 55.188 90.074 c 48.777 88.969
 43.305 86.375 40.121 82.934 c 38.328 80.996 37.297 78.492 37.43 76.398 
c 37.695 72.195 41.695 68.812 48.137 67.348 c 49.895 66.945 52.754 66.621
 54.496 66.621 c 55.082 66.621 l 55.324 66.34 l 55.57 66.055 57.359 63.797
 58.41 62.445 c 59.055 61.617 59.613 61.234 60.488 61.02 c 61.059 60.883
 62.027 60.918 62.82 61.109 c 63.488 61.27 l 76.285 69.125 l 83.328 73.449
 89.156 77.059 89.238 77.152 c h
61.961 62.164 m 61.738 62.148 61.438 62.168 61.293 62.211 c 61.016 62.289
 60.969 62.336 59.992 63.582 c 58.988 64.863 58.473 65.516 58.129 65.938
 c 57.949 66.156 57.742 66.418 57.672 66.516 c 57.539 66.695 l 58.555 66.785
 l 65.18 67.355 71.52 69.754 75.375 73.145 c 77.582 75.086 78.945 77.344
 79.203 79.484 c 79.273 80.07 l 79.605 80.008 l 79.785 79.977 80.262 79.879
 80.66 79.797 c 81.43 79.641 82.617 79.402 84.957 78.941 c 87.234 78.492
 87.32 78.469 87.48 78.32 c 87.566 78.242 87.625 78.074 87.617 77.945 c 
87.605 77.715 l 74.984 69.953 l 62.367 62.191 l h
70.062 71.254 m 65.391 68.785 59.887 67.582 54.188 67.789 c 51.207 67.898
 48.168 68.543 45.707 69.594 c 43.07 70.715 41.152 72.266 40.18 74.055 c
 38.164 77.762 40.195 82.062 45.492 85.324 c 50.453 88.375 57.266 89.895
 63.688 89.379 c 70.484 88.832 75.926 85.828 77.023 82.016 c 77.809 79.281
 76.777 76.547 73.996 74 c 72.719 72.832 71.691 72.117 70.062 71.254 c h
70.805 74.109 m 72.078 75.039 73.031 76.195 73.539 77.426 c 73.844 78.168
 73.918 79.676 73.688 80.48 c 73.246 82.027 71.844 83.738 70.938 83.832 
c 70.535 83.875 70.059 83.738 69.023 83.281 c 68.043 82.848 66.191 81.766
 65.527 81.234 c 65.137 80.922 l 64.516 80.996 l 63.641 81.102 62.371 81
 61.363 80.738 c 60.555 80.531 60.449 80.484 59.59 79.953 c 58.758 79.441
 58.652 79.352 58.391 78.949 c 58.117 78.52 57.961 77.551 58.102 77.16 c
 58.164 76.977 l 56.555 76.438 l 55.012 75.922 54.91 75.879 54.035 75.336
 c 53.328 74.898 53.039 74.676 52.73 74.324 c 51.668 73.113 51.555 71.785
 52.438 70.832 c 52.863 70.367 53.93 69.793 54.801 69.555 c 56.242 69.16
 58.27 69.121 59.84 69.453 c 61.254 69.754 65.246 71.195 67.332 72.164 c
 68.801 72.844 69.949 73.488 70.805 74.109 c h
66.699 73.285 m 64.934 72.461 60.852 70.945 59.465 70.598 c 56.961 69.965
 54.461 70.699 53.973 72.203 c 53.699 73.051 54.105 73.773 55.25 74.477 
c 55.816 74.824 56.152 74.969 57.473 75.418 c 58.328 75.711 59.113 75.957
 59.215 75.973 c 59.32 75.988 59.504 75.945 59.625 75.883 c 59.969 75.703
 61.086 75.488 61.879 75.449 c 63.16 75.391 64.934 75.73 65.332 76.113 c
 65.594 76.363 65.543 76.652 65.207 76.828 c 64.855 77.012 64.422 77.004
 63.695 76.801 c 62.637 76.504 61.691 76.547 60.953 76.926 c 60.273 77.273
 59.996 77.68 60.082 78.184 c 60.164 78.652 60.379 78.863 61.27 79.363 c
 61.77 79.641 62.016 79.734 62.469 79.809 c 63.066 79.91 64.16 79.844 64.457
 79.688 c 64.789 79.516 65.398 79.465 65.773 79.578 c 66.078 79.668 66.227
 79.766 66.672 80.184 c 67.242 80.711 69.031 81.871 69.77 82.184 c 70.25
 82.391 70.324 82.355 70.809 81.715 c 71.668 80.578 71.953 79.105 71.562
 77.824 c 71.281 76.898 70.41 75.688 69.465 74.906 c 69.023 74.543 67.574
 73.691 66.699 73.285 c h
69.891 78.391 m 70.125 78.629 70.172 78.945 70.008 79.207 c 69.785 79.562
 69.211 79.715 68.418 79.633 c 67.898 79.578 67.805 79.547 67.453 79.293
 c 67.012 78.973 66.875 78.664 67.02 78.316 c 67.102 78.109 67.172 78.066
 67.547 77.977 c 68.414 77.762 69.445 77.945 69.891 78.391 c h
83.289 85.465 m 83.469 85.703 83.297 86.035 82.52 86.926 c 80.43 89.316
 77.309 91.137 73.164 92.387 c 72.043 92.723 69.797 93.242 69.102 93.32 
c 68.453 93.398 67.785 93.109 67.68 92.711 c 67.578 92.348 67.777 92.258
 69.473 91.898 c 74.887 90.758 78.57 88.824 80.867 85.922 c 81.246 85.445
 81.562 85.129 81.707 85.09 c 82.215 84.945 83.047 85.145 83.289 85.465 
c h
48.969 64.41 m 49.242 64.848 48.992 64.988 47.375 65.309 c 44.672 65.844
 42.559 66.566 40.445 67.672 c 38.371 68.754 37.172 69.707 35.828 71.336
 c 35.422 71.828 35.102 72.133 34.949 72.176 c 34.43 72.324 33.562 72.055
 33.352 71.684 c 33.238 71.488 33.359 71.273 34.059 70.441 c 35.582 68.629
 38.211 66.844 40.973 65.742 c 43.25 64.832 47.211 63.82 48.09 63.926 c 
48.465 63.973 48.82 64.164 48.969 64.41 c h
48.969 64.41 m f
190.633 64.828 m 190.074 64.227 189.973 63.523 190.387 63.082 c 190.863
 62.578 191.457 62.363 193.477 61.965 c 194.508 61.762 195.676 61.531 196.078
 61.449 c 196.477 61.363 197.445 61.172 198.227 61.02 c 199.008 60.867 199.879
 60.691 200.16 60.629 c 200.672 60.516 l 200.719 60.191 l 200.941 58.727
 202.066 56.922 203.574 55.621 c 207.844 51.941 216.281 50.453 224.688 51.902
 c 231.098 53.012 236.57 55.605 239.75 59.043 c 241.547 60.984 242.578 63.488
 242.445 65.578 c 242.18 69.781 238.18 73.164 231.738 74.633 c 229.98 75.031
 227.121 75.359 225.379 75.355 c 224.793 75.355 l 224.551 75.637 l 224.305
 75.926 222.516 78.18 221.465 79.535 c 220.82 80.359 220.262 80.742 219.387
 80.957 c 218.816 81.098 217.848 81.059 217.055 80.867 c 216.387 80.707 
l 203.59 72.852 l 196.547 68.531 190.719 64.918 190.633 64.828 c h
217.914 79.812 m 218.137 79.828 218.438 79.809 218.582 79.77 c 218.859 
79.691 218.902 79.645 219.883 78.395 c 220.887 77.113 221.402 76.461 221.746
 76.043 c 221.926 75.82 222.133 75.562 222.203 75.461 c 222.336 75.281 l
 221.32 75.195 l 214.695 74.621 208.355 72.223 204.5 68.836 c 202.293 66.895
 200.93 64.637 200.672 62.492 c 200.602 61.91 l 200.27 61.969 l 200.09 62.004
 199.613 62.098 199.215 62.18 c 198.445 62.34 197.258 62.578 194.918 63.035
 c 192.641 63.484 192.555 63.508 192.395 63.656 c 192.309 63.734 192.25 
63.902 192.258 64.031 c 192.27 64.262 l 204.891 72.023 l 217.508 79.785 
l h
209.812 70.723 m 214.484 73.191 219.988 74.395 225.688 74.188 c 228.668
 74.078 231.707 73.434 234.168 72.387 c 236.805 71.262 238.723 69.715 239.695
 67.922 c 241.711 64.215 239.68 59.914 234.383 56.652 c 229.422 53.602 222.609
 52.086 216.188 52.602 c 209.391 53.145 203.949 56.148 202.852 59.961 c 
202.066 62.695 203.098 65.434 205.879 67.977 c 207.156 69.145 208.184 69.863
 209.812 70.723 c h
209.07 67.867 m 207.797 66.938 206.844 65.781 206.336 64.551 c 206.031 
63.812 205.957 62.301 206.188 61.496 c 206.629 59.949 208.031 58.242 208.938
 58.145 c 209.34 58.102 209.816 58.238 210.852 58.695 c 211.832 59.129 213.684
 60.211 214.348 60.742 c 214.738 61.055 l 215.359 60.98 l 216.234 60.875
 217.504 60.98 218.512 61.238 c 219.32 61.445 219.426 61.492 220.285 62.023
 c 221.117 62.535 221.223 62.625 221.48 63.031 c 221.758 63.457 221.914 
64.426 221.773 64.82 c 221.711 65.004 l 223.32 65.539 l 224.863 66.055 224.965
 66.102 225.84 66.641 c 226.547 67.078 226.836 67.305 227.145 67.652 c 228.207
 68.867 228.32 70.191 227.438 71.145 c 227.012 71.609 225.945 72.184 225.074
 72.422 c 223.633 72.816 221.605 72.855 220.035 72.523 c 218.621 72.227 
214.629 70.781 212.543 69.816 c 211.074 69.137 209.926 68.492 209.07 67.867
 c h
213.176 68.691 m 214.941 69.516 219.023 71.031 220.41 71.383 c 222.914 
72.012 225.414 71.281 225.902 69.773 c 226.176 68.926 225.77 68.203 224.625
 67.5 c 224.059 67.152 223.723 67.008 222.402 66.559 c 221.547 66.27 220.762
 66.02 220.66 66.004 c 220.555 65.992 220.371 66.031 220.25 66.094 c 219.906
 66.273 218.789 66.488 217.996 66.527 c 216.715 66.59 214.941 66.25 214.543
 65.863 c 214.281 65.617 214.332 65.324 214.668 65.148 c 215.02 64.965 215.453
 64.973 216.18 65.176 c 217.238 65.477 218.184 65.434 218.922 65.051 c 219.602
 64.703 219.879 64.301 219.793 63.793 c 219.711 63.328 219.496 63.113 218.605
 62.617 c 218.105 62.336 217.859 62.246 217.406 62.168 c 216.809 62.066 
215.715 62.133 215.418 62.289 c 215.086 62.461 214.477 62.512 214.102 62.402
 c 213.797 62.309 213.648 62.211 213.203 61.797 c 212.633 61.266 210.844
 60.109 210.105 59.793 c 209.625 59.586 209.551 59.621 209.066 60.262 c 
208.207 61.398 207.922 62.871 208.312 64.152 c 208.594 65.082 209.465 66.289
 210.41 67.07 c 210.852 67.434 212.301 68.285 213.176 68.691 c h
209.984 63.586 m 209.746 63.352 209.703 63.031 209.867 62.77 c 210.09 62.414
 210.664 62.262 211.457 62.344 c 211.977 62.398 212.07 62.43 212.422 62.688
 c 212.863 63.008 213 63.312 212.855 63.66 c 212.773 63.867 212.703 63.91
 212.328 64.004 c 211.461 64.215 210.43 64.031 209.984 63.586 c h
196.586 56.512 m 196.406 56.273 196.578 55.941 197.355 55.055 c 199.445
 52.66 202.566 50.84 206.711 49.59 c 207.832 49.254 210.078 48.734 210.773
 48.656 c 211.422 48.582 212.09 48.867 212.195 49.266 c 212.297 49.629 212.098
 49.719 210.402 50.078 c 204.988 51.223 201.305 53.152 199.008 56.059 c 
198.629 56.531 198.312 56.848 198.168 56.891 c 197.66 57.031 196.828 56.832
 196.586 56.512 c h
230.906 77.57 m 230.633 77.129 230.883 76.988 232.5 76.668 c 235.203 76.133
 237.316 75.414 239.43 74.309 c 241.504 73.223 242.703 72.27 244.047 70.641
 c 244.453 70.152 244.773 69.844 244.926 69.801 c 245.445 69.656 246.312
 69.922 246.523 70.293 c 246.637 70.492 246.516 70.703 245.816 71.535 c 
244.289 73.348 241.664 75.133 238.902 76.238 c 236.625 77.145 232.664 78.156
 231.785 78.051 c 231.41 78.004 231.055 77.812 230.906 77.57 c h
230.906 77.57 m f
Q Q
showpage
%%Trailer
end
%%EOF
