t,codex,codey,ddx,ddy,dda
0,7,8,-1,1, 1.4
8,10,7,3,-1, 3.2
16,6,7,-2,-1, 2.2
24,8,9,1,2, 2.2
32,7,7,-1,-1, 1.4
40,9,7,2,-1, 2.2
48,7,9,-1,2, 2.2
56,11,7,4,-1, 4.1
64,7,7,-1,-1, 1.4
72,9,9,2,2, 2.8
80,7,7,-1,-1, 1.4
88,11,9,4,2, 4.5
96,6,7,-2,-1, 2.2
104,7,8,-1,1, 1.4
112,7,8,-1,1, 1.4
120,7,11,-1,4, 4.1
128,8,9,1,2, 2.2
136,7,10,-1,3, 3.2
144,7,9,-1,2, 2.2
152,6,13,-2,8, 8.2
160,7,6,-1,-2, 2.2
168,7,10,-1,3, 3.2
176,7,6,-1,-2, 2.2
184,5,3,-3,-6, 6.7
192,7,4,-1,-4, 4.1
200,8,3,1,-6, 6.1
208,7,6,-1,-2, 2.2
216,9,5,2,-3, 3.6
224,5,3,-3,-6, 6.7
232,3,3,-6,-6, 8.5
240,10,2,3,-8, 8.5
248,8,7,1,-1, 1.4
256,9,7,2,-1, 2.2
264,11,5,4,-3, 5.0
272,9,7,2,-1, 2.2
280,11,9,4,2, 4.5
288,12,10,6,3, 6.7
296,11,13,4,8, 8.9
304,9,13,2,8, 8.2
312,7,12,-1,6, 6.1
320,8,12,1,6, 6.1
328,7,10,-1,3, 3.2
336,5,9,-3,2, 3.6
344,3,9,-6,2, 6.3
352,8,7,1,-1, 1.4
360,3,5,-6,-3, 6.7
368,7,5,-1,-3, 3.2
376,8,8,1,1, 1.4
384,3,6,-6,-2, 6.3
392,10,7,3,-1, 3.2
400,5,8,-3,1, 3.2
408,7,5,-1,-3, 3.2
416,7,6,-1,-2, 2.2
424,8,6,1,-2, 2.2
432,9,7,2,-1, 2.2
440,7,6,-1,-2, 2.2
448,12,5,6,-3, 6.7
456,7,4,-1,-4, 4.1
464,11,6,4,-2, 4.5
472,13,7,8,-1, 8.1
480,13,11,8,4, 8.9
488,8,11,1,4, 4.1
496,10,11,3,4, 5.0
504,7,12,-1,6, 6.1
512,4,12,-4,6, 7.2
520,1,8,-12,1,12.0
528,6,7,-2,-1, 2.2
536,4,7,-4,-1, 4.1
544,5,6,-3,-2, 3.6
552,5,7,-3,-1, 3.2
560,6,8,-2,1, 2.2
568,3,8,-6,1, 6.1
576,10,4,3,-4, 5.0
584,4,7,-4,-1, 4.1
592,9,6,2,-2, 2.8
600,10,6,3,-2, 3.6
608,9,7,2,-1, 2.2
616,11,7,4,-1, 4.1
624,8,6,1,-2, 2.2
632,11,5,4,-3, 5.0
640,12,7,6,-1, 6.1
648,13,5,8,-3, 8.5
656,13,10,8,3, 8.5
664,9,11,2,4, 4.5
672,9,11,2,4, 4.5
680,7,12,-1,6, 6.1
688,2,12,-8,6,10.0
696,1,6,-12,-2,12.2
704,6,7,-2,-1, 2.2
712,4,6,-4,-2, 4.5
720,7,6,-1,-2, 2.2
728,7,7,-1,-1, 1.4
736,5,7,-3,-1, 3.2
744,7,7,-1,-1, 1.4
752,6,7,-2,-1, 2.2
760,4,7,-4,-1, 4.1
768,7,3,-1,-6, 6.1
776,9,7,2,-1, 2.2
784,8,7,1,-1, 1.4
792,11,8,4,1, 4.1
800,11,4,4,-4, 5.7
808,11,8,4,1, 4.1
816,13,10,8,3, 8.5
824,7,10,-1,3, 3.2
832,11,8,4,1, 4.1
840,12,12,6,6, 8.5
848,7,13,-1,8, 8.1
856,6,12,-2,6, 6.3
864,2,9,-8,2, 8.2
872,5,6,-3,-2, 3.6
880,4,6,-4,-2, 4.5
888,5,6,-3,-2, 3.6
896,6,7,-2,-1, 2.2
904,7,3,-1,-6, 6.1
912,8,8,1,1, 1.4
920,9,4,2,-4, 4.5
928,7,7,-1,-1, 1.4
936,9,6,2,-2, 2.8
944,7,7,-1,-1, 1.4
952,9,7,2,-1, 2.2
960,7,7,-1,-1, 1.4
968,8,7,1,-1, 1.4
976,8,8,1,1, 1.4
984,7,7,-1,-1, 1.4
992,9,8,2,1, 2.2
